--- PREDICTION
+たまねぎ 1650929852 "玉葱" 
+かせぐ 1650884328 "稼ぐ" 
+かせぎ 1650884316 "稼ぎ" 
+ごう 1650884295 "ごう" 
+にーる 1650862932 "ニール" 
+ぐらと 1650862932 "グラト" 
+こ 1650191720 "子" 1650786149 "個" 
+さが 1650786147 "性" 
+こしょう 1650786143 "誇称" 
+こさが 1650786137 "濃さが" 
+もし 1650786100 "もし" 
+こわし 1650786067 "壊し" 
+くずし 1650786062 "崩し" 
+おおね 1650782563 "大根" 
+まさるね 1650782560 "勝るね" 
+まさ 1650782548 "マサ" 
+めん 1650711027 "麺" 
+つけ 1650711027 "漬け" 
+まさゆき 1650609797 "昌幸" 
+まだ 1650609791 "真田" 
+まさだ 1650609788 "まさだ" 
+とき 1648642607 "時" 1649819401 "トキ" 1650608470 "辰" 
+きき 1650608456 "利き" 
+き 1650608361 "輝" 1650608443 "き" 
+り 1650243395 "り" 1650608440 "利" 
+かが 1650608418 "科が" 1650608432 "花芽" 
+よしき 1650608332 "義材" 
+あし 1650608306 "足" 
+かげ 1650608267 "陰" 
+まつかげ 1650608264 "松蔭" 
+よしだ 1650608257 "吉田" 
+らっきょう 1650454955 "辣韮" 
+TV 1650445701 "TV" 
+ちゃん 1650445695 "ちゃん" 1649392080 "ch" 
+かきん 1650445693 "かきん" 
+ぴ 1650445693 "ぴ" 
+ばんぐみ 1650444833 "番組" 
+ろ 1647797649 "ろ" 1648642554 "呂" 1650444460 "ロ" 
+ぼか 1650444460 "ボカ" 
+より 1650358460 "依里" 
+たち 1650330544 "タチ" 
+・ 1650280089 "・" 
+まこと 1650280087 "真" 
+むそう 1650280067 "無双" 
+ほくと 1650280064 "北斗" 
+い 1650243387 "い" 
+ねり 1650243380 "ねり" 
+もんすと 1650203193 "モンスト" 
+てっけん 1650203190 "鉄拳" 
+FMP 1650203070 "FMP" 
+fmp 1650203062 "fmp" 
+ぎあす 1650202868 "ギアス" 
+こーど 1650202866 "コード" 
+こらぼ 1650202412 "コラボ" 
+えみ 1650195491 "笑み" 
+えまず 1650195462 "笑まず" 
+み 1650195384 "み" 1649505420 "実" 
+わらい 1650195382 "笑い" 
+あ 1649020380 "亜" 1650192617 "あ" 1649558795 "ア" 
+ふう 1650192617 "ふう" 
+かえで 1650192599 "楓" 
+みす 1650192512 "ミス" 
+て 1650192512 "テ" 1648647074 "手" 
+あー 1650192512 "アー" 
+いる 1650192477 "射る" 
+せいめん 1650192470 "セイメン" 
+ねらい 1650192454 "狙い" 
+ねらって 1650192451 "狙って" 
+ご 1647288932 "語" 1650191719 "五" 
+おく 1650191703 "奥" 
+ん 1650191560 "ん" 1649343409 "ン" 
+しを 1650191560 "しを" 
+みや 1650191553 "宮" 
+と 1650191551 "都" 
+う 1650191540 "宇" 
+らら 1650191353 "ララ" 1650191355 "らら" 
+あんざい 1650191349 "安斎" 
+じょしん 1650190100 "女神" 
+みはる 1650190095 "みはる" 
+ざき 1650190093 "咲き" 
+はね 1650190091 "羽" 
+うさ 1650190088 "憂さ" 
+ちゅう 1650188728 "ちゅう" 
+ふっく 1650188709 "フック" 1650188724 "ふっく" 
+さき 1649986311 "前" 1648646006 "埼" 1648646009 "裂き" 1650188568 "咲き" 
+はると 1650116649 "晴斗" 
+えいみちゃん 1650073095 "えいみちゃん" 
+だめだ 1650073069 "駄目だ" 
+いやいや 1650073006 "いやいや" 
+やな 1649641659 "梁" 1650026078 "やな" 
+わな 1650026068 "罠" 
+はり 1650026057 "梁" 
+ろく 1650001596 "勒" 
+や 1650001596 "弥" 
+さけろ 1649986281 "割けろ" 
+なやみ 1649945258 "悩み" 
+やまい 1649945252 "病" 
+あらみ 1649945155 "新見" 
+あやみ 1649945149 "彩美" 
+た 1649945002 "た" 
+れ 1649945002 "れ" 
+っ 1649944997 "っ" 
+おんな 1649944930 "女" 
+おとこ 1649944917 "男" 
+みだす 1649944916 "乱す" 
+みだされる 1649944894 "乱される" 
+みだれて 1649944675 "乱れて" 
+みだれ 1649944277 "乱れ" 
+よ 1649180779 "よ" 1649944248 "世" 
+みだれよ 1649944246 "乱れよ" 
+くずれ 1649943180 "崩れ" 
+ちゃんねる 1649943096 "チャンネル" 
+さぶ 1649943092 "サブ" 
+よみ 1649943047 "読み" 
+なみだ 1649942981 "泪" 1649942997 "涙" 
+やばい 1649942903 "ヤバい" 
+ゆあちゃん 1649942851 "ゆあちゃん" 
+げきから 1649942841 "激辛" 
+じ 1649941624 "地" 
+だい 1649343406 "ダイ" 1649941619 "大" 
+かれた 1649941606 "枯れた" 
+とうあちゃん 1649939678 "とうあちゃん" 
+まさる 1646142152 "優" 1649389067 "マサル" 1646142165 "賢" 1649929037 "克" 
+こし 1649929018 "超し" 
+。 1649903613 "。" 
+じゃ 1649903613 "邪" 
+おんがく 1649903249 "音楽" 
+ごとく 1649903239 "如く" 1649839234 "五徳" 
+が 1646585604 "我" 1649903239 "が" 1649845996 "牙" 
+OST 1649900711 "OST" 
+ひさ 1649899590 "久" 
+だし 1649899587 "出し" 
+たに 1649899576 "谷" 
+みどり 1649899572 "緑" 
+なつき 1649846827 "夏樹" 
+はなえ 1649846820 "花江" 
+ぞくせい 1649846360 "属性" 
+DD 1649846337 "DD" 
+すぱろぼ 1649846336 "スパロボ" 
+つるぎ 1649846003 "剣" 
+おおが 1649845989 "大が" 
+えいみ 1649842338 "えいみ" 
+ふかだ 1649842334 "深田" 
+S 1649839357 "S" 
+f 1649839234 "F" 
+ごとし 1649838935 "事し" 
+Toki 1649819423 "Toki" 
+さ 1649819334 "さ" 1649819338 "サ" 
+うざー 1649819332 "ウザー" 
+c 1649817289 "C" 
+fぁ 1649817289 "Fぁ" 
+ひっさつ 1649817252 "必殺" 
+やなだ 1649641642 "簗田" 
+りょうり 1649590558 "料理" 
+せよ 1649559650 "セヨ" 1649588878 "せよ" 
+ちゅ 1649588878 "チュ" 
+g 1649570230 "G" 
+ばとす 1649562987 "バトス" 
+ばー 1649562987 "バー" 
+そな 1649559633 "ソナ" 
+ぜろ 1649558797 "ゼロ" 
+あーるどの 1649558795 "アールドノ" 
+らむ 1649558780 "ラム" 
+え 1649558780 "エ" 
+せ 1647118627 "背" 1649558780 "セ" 
+かれん 1647602073 "かれん" 1649511225 "カレン" 
+つき 1648758410 "附き" 1649511116 "月" 
+あか 1649511095 "アカ" 
+まん 1649507125 "マン" 
+たー 1649507125 "ター" 
+べっ 1649507125 "ベッ" 
+やまぐち 1649507106 "山口" 
+ひら 1649507097 "平" 
+かつ 1649507097 "勝つ" 
+ほう 1649505486 "砲" 
+つつ 1649505476 "筒" 
+たま 1649505424 "弾" 
+やり 1649505318 "鎗" 1649505389 "槍" 
+かま 1649505299 "鎌" 
+つる 1649505249 "つる" 
+ほく 1649503252 "北" 
+まけ 1649503252 "敗け" 
+まかる 1649503215 "罷る" 
+、 1649503210 "、" 
+る 1649497118 "流" 1649497234 "る" 1649500834 "ル" 
+こーどぎあす 1649500755 "コードギアス" 
+とん 1649180491 "屯" 1649500724 "トン" 
+だー 1649500724 "ダー" 
+XIII 1649497226 "XIII" 
+しゅ 1649497217 "シュ" 
+るーし 1649497211 "ルーシ" 
+IX 1649497151 "IX" 
+しと 1649497146 "使徒" 
+ら 1649497118 "等" 1649497127 "ら" 
+おちる 1649497089 "墜ちる" 
+ぶち 1649497085 "撃ち" 
+すざく 1649497065 "スザク" 
+を 1649497054 "を" 
+りあ 1649497053 "リア" 
+ね 1647550085 "根" 1649497053 "ネ" 
+こー 1649497053 "コー" 
+うおら 1649407481 "宇夫ら" 
+あね 1649392080 "姉" 
+お 1649392076 "お" 
+おね 1646508518 "おね" 1649392058 "緒ね" 
+おんせん 1649392044 "温泉" 
+おんぞん 1649392037 "オンゾン" 
+いらいしゃ 1649392025 "依頼者" 
+ず 1649343573 "ズ" 
+めとる 1649343573 "メトル" 
+s 1649343506 "s" 
+ぃ 1649343413 "ィ" 
+めんしょ 1649343406 "メンショ" 
+たいせん 1649343333 "大戦" 
+ろぼっと 1649343325 "ロボット" 
+ぱー 1649343321 "パー" 
+すっ 1649343321 "スッ" 
+() 1649343313 "()" 
+らいく 1649343302 "ライク" 
+し 1647868651 "し" 1649343302 "シ" 
+もんすたー 1649343297 "モンスター" 
+ばら 1649327688 "ばら" 1649327693 "薔薇" 
+まんが 1649275219 "漫画" 
+=() 1649275209 "=()" 
+ひろゆき 1649274198 "弘之" 
+さわの 1649274187 "沢野" 
+みなみ 1649274158 "みなみ" 
+さわ 1649274156 "沢" 
+さがら 1649274151 "相良" 
+は 1649232509 "は" 
+ど 1649180878 "ド" 
+たつ 1649180621 "竜" 
+きゅう 1649180617 "九" 
+みなと 1649180596 "港" 
+か 1648721054 "課" 1648721063 "か" 1649180593 "香" 
+だ 1649180538 "だ" 
+! 1649180538 "！" 
+おす 1649180532 "オス" 
+かに 1649180532 "カニ" 
+ど・ 1649180532 "ド・" 
+ほ・ 1649180532 "ホ・" 
+に 1649180513 "に" 
+すみ 1649180509 "住み" 
+もん 1649180482 "もん" 1649180491 "門" 
+どん 1649180482 "丼" 
+いまな 1649180462 "今な" 
+な 1649180458 "な" 
+はし 1649180451 "嘴" 
+つの 1649180331 "角" 
+おお 1649180328 "大" 
+もと 1647793587 "下" 1649180323 "元" 
+ゆう 1648662472 "猶" 1649020380 "悠" 
+みかみ 1649020380 "三上" 
+まさき 1649017122 "まさき" 1649017262 "真咲" 
+あんどう 1649017249 "安藤" 
+おいち 1649017002 "お市" 
+かむり 1649015228 "被り" 
+かぶり 1649015224 "被り" 
+かむい 1649015211 "カムイ" 
+なる 1649004720 "なる" 
+かい 1649004710 "かい" 
+いちか 1648993596 "いちか" 
+まつもと 1648993593 "松本" 
+みけん 1648988951 "ミケン" 
+おわらい 1648988328 "お笑い" 
+やまぎし 1648987633 "山岸" 
+やまきし 1648987627 "八巻氏" 
+みずき 1648987585 "みずき" 
+め 1648987581 "芽" 
+あいめ 1648987577 "藍め" 
+しのちゃん 1648928745 "しのちゃん" 
+くるま 1648928132 "車" 
+せき 1648928113 "関" 
+ぜき 1648928068 "関" 
+くろ 1648928068 "黒" 
+された 1648758439 "された" 
+する 1648758421 "する" 
+せず 1648758414 "せず" 
+づき 1648758396 "ヅキ" 
+ずき 1648758391 "ズキ" 
+される 1648758291 "される" 
+せし 1648758255 "せし" 
+るたー 1648727477 "ルター" 
+け 1647797649 "け" 1648727477 "ケ" 
+るたーす 1648727477 "ルタース" 
+へ 1648727477 "へ" 
+おおぎり 1648721105 "大喜利" 
+tv 1648721077 "tv" 
+きんちゃん 1648721050 "きんちゃん" 
+ぴき 1648721050 "ぴき" 
+えすて 1648716803 "エステ" 
+せめられる 1648716667 "責められる" 
+せまれる 1648716656 "セマレル" 
+はな 1646676369 "華" 1647550331 "花" 1648716226 "ハな" 1648716598 "はな" 
+もも 1648716597 "桃" 
+しら 1648716595 "白" 
+l 1648664836 "L" 
+ふ 1648664836 "不" 
+ち 1648664836 "知" 
+v 1648664836 "V" 
+ふぁ 1648664836 "ファ" 
+ちじょ 1648664697 "痴女" 
+ゆういち 1648662477 "悠一" 
+ゆ 1648662466 "蝓" 
+ゆあ 1648662457 "ユア" 
+つむ 1648647792 "積む" 
+あらった 1648647074 "洗った" 
+あらって 1648647060 "洗って" 
+けよ 1648646125 "けよ" 
+かられた 1648646097 "かられた" 
+けた 1648646065 "けた" 
+おう 1648646048 "王" 
+きみ 1648646042 "君" 
+きし 1648646025 "騎士" 
+ひじり 1648646023 "聖" 
+くだけ 1648646006 "砕け" 
+のろい 1648645989 "呪い" 
+にがし 1648645960 "逃し" 
+のがし 1648645957 "逃し" 
+どらえもん 1648643806 "ドラえもん" 
+ざ 1648643669 "ザ" 
+ま 1648642608 "間" 1647619100 "マ" 1647854753 "馬" 
+かざ 1648642554 "風" 
+あがり 1648639133 "揚がり" 1648639144 "アガり" 
+あがった 1648639117 "揚がった" 
+つかった 1648639092 "遣った" 
+つかい 1648639062 "遣い" 1648639074 "ツカイ" 
+あゆみ 1648328653 "歩" 
+げる 1648328628 "げる" 
+ぎ 1648328617 "ぎ" 
+むら 1648299965 "村" 
+よしひこ 1648299942 "佳彦" 
+かわ 1648299934 "川" 
+つ 1648299934 "津" 
+せん 1648213465 "戦" 
+C 1648205864 "Ｃ" 
+TCN 1648205836 "TCN" 
+しろい 1648204977 "白い" 
+つら 1648204965 "ツラ" 1648204977 "面" 
+つかまず 1648204488 "攫まず" 
+とらい 1648204383 "トライ" 
+つかまる 1648204354 "捕まる" 
+けもの 1648198607 "獣" 
+いき 1648198604 "生き" 
+よせ 1648198598 "寄せ" 
+よし 1648198585 "ヨシ" 
+ひとみ 1648143925 "ひとみ" 
+たなか 1648143923 "田中" 
+はつじょう 1648142089 "発条" 
+はっちょう 1648142079 "８帖" 
+なつみ 1648141933 "夏美" 
+なつみちゃん 1648141928 "なつみちゃん" 
+jpg 1648141892 "jpg" 
+あけみ 1648130372 "明珠" 
+つかる 1648130350 "漬かる" 
+くにお 1648038123 "国夫" 
+かわい 1648038116 "河合" 1648038119 "川井" 
+び 1648035435 "び" 
+ために 1648035403 "溜に" 
+きょうし 1648011265 "教師" 
+かてい 1648011263 "家庭" 
+しなりお 1648011158 "シナリオ" 
+ちゅうか 1647977219 "中華" 
+m 1647938144 "M" 
+ぐんだ 1647938144 "軍だ" 
+だんご 1647936552 "団子" 
+ぺいん 1647931467 "ペイン" 
+ぜいが 1647931463 "ゼイガ" 
+えいん 1647931456 "会陰" 
+ぱ 1647931456 "波" 
+ぜー 1647931456 "З" 
+ぜい 1647931362 "ゼイ" 
+ぞら 1647931346 "ゾラ" 
+せめた 1647869346 "責めた" 
+あまい 1647869341 "甘い" 
+せめ 1647118631 "責" 1647869210 "責め" 
+こい 1647869181 "濃い" 1647869185 "恋" 
+わたしを 1647868942 "私を" 
+わたし 1647868924 "私" 
+まな 1647868911 "愛" 
+じあい 1647868832 "慈愛" 
+しっぱい 1647868603 "失敗" 
+p 1647868587 "P" 
+で 1647868587 "で" 
+しろうと 1647865512 "素人" 
+の 1647854789 "の" 
+ひらく 1647854749 "拓く" 
+ながれ 1647854738 "流れ" 
+げったー 1647854690 "ゲッター" 
+もうされた 1647854685 "申された" 
+まをされた 1647854680 "魔をされた" 
+BGM 1647843091 "BGM" 
+しれん 1647843082 "試練" 
+わらった 1647841393 "笑った" 
+はい 1647810905 "這い" 
+りき 1647806015 "力" 
+ぞー 1647805914 "ゾー" 
+くるー 1647805914 "クルー" 
+ながれず 1647798149 "流れず" 
+なくぞ 1647798065 "泣くぞ" 
+かません 1647797658 "かません" 
+ぬ 1647797615 "ぬ" 
+なかず 1647797595 "泣かず" 
+なかません 1647797591 "仲間せん" 
+さち 1647795280 "薩" 
+d 1647118583 "D" 1647793851 "Ｄ" 
+srwっ 1647793851 "srwっ" 
+ありな 1647793640 "有りな" 
+まず 1647793615 "先ず" 
+もとき 1647793593 "元木" 
+もとめ 1647793576 "基め" 
+さいかい 1647792219 "再会" 
+ひゅー 1647789800 "ヒュー" 
+あっぷる 1647708872 "アップル" 
+ぴょう 1647708867 "ピョウ" 
+じょゆう 1647708841 "女優" 
+ー 1647708837 "ー" 
+せくし 1647708835 "セクシ" 
+らんど 1647708630 "ランド" 
+きらら 1647708623 "キララ" 
+まりな 1647708600 "茉莉な" 
+しらいし 1647708592 "白石" 
+まりりん 1647708581 "まりりん" 
+ひかり 1647708566 "ひかり" 
+あおぞら 1647708562 "青空" 
+くい 1647705327 "９位" 
+くらい 1647705277 "暗い" 1647705316 "昏い" 
+くらし 1647705313 "苦らし" 
+わ 1647705284 "わ" 
+くら 1647705284 "クラ" 
+ああ 1647705257 "ああ" 
+らめし 1647705255 "ラメシ" 
+きらめき 1647705246 "煌めき" 
+きら 1647705239 "基ら" 
+h 1647705239 "H" 
+おわり 1647705223 "終" 
+しまい 1647705214 "仕舞い" 
+しまず 1647705207 "染まず" 
+すすまず 1647705183 "進まず" 
+せめし 1647118641 "責めし" 1647705174 "責し" 
+せまい 1647705163 "狭い" 
+# 1647633237 "#" 
+ろぼ 1647621348 "ロボ" 
+もぼ 1647621341 "モボ" 
+UFO 1647621338 "UFO" 
+じゅーく 1647621335 "ジューク" 
+すけ 1647621328 "介" 
+さーべる 1647620010 "サーベル" 
+いぬっす 1647619100 "イヌッス" 
+いぬす 1647619087 "犬す" 1647619092 "いぬす" 
+たす 1647619075 "＋" 
+たし 1647619065 "タシ" 
+しっく 1647602670 "シック" 
+れい 1647602670 "レイ" 
+おし 1647602520 "押し" 
+ええ 1647602517 "ええ" 
+ひき 1647602505 "引き" 
+かわり 1647602484 "変り" 1647602495 "換わり" 
+むかい 1647288820 "向" 1647602423 "向い" 
+r 1647586246 "R" 
+うぃっ 1647586246 "ゐっ" 
+t 1647586246 "T" 
+あいすくりーむ 1647552725 "アイスクリーム" 
+ぎゃる 1647550347 "ギャル" 
+あすか 1647550322 "明日香" 
+こすぷれ 1647550311 "コスプレ" 
+tfぁ 1647550085 "tfぁ" 
+ねね 1647549742 "ねね" 
+めいん 1647365580 "メイン" 
+のがれし 1647358769 "逃れし" 
+にがい 1647358727 "苦い" 
+bm 1647289821 "bm" 
+うぇ 1647289821 "ゑ" 
+とび 1647288932 "飛び" 
+とらわれた 1647288897 "囚われた" 
+さげし 1647288853 "下げし" 
+おろし 1647288834 "下ろし" 
+くだし 1647288828 "下し" 
+」 1646944891 "』" 1647288824 "」" 
+むき 1647288811 "剥き" 
+うち 1647288800 "撃ち" 
+げいげき 1647288778 "迎撃" 
+こさも 1647287740 "こさも" 
+われし 1647279618 "割れし" 1647279621 "われし" 
+さいこう 1647172858 "最高" 
+もの 1647172855 "物" 
+かない 1647172851 "適い" 
+せみ 1647118657 "蝉" 1647118663 "蜩" 
+めき 1647118627 "メキ" 
+たれ 1647118617 "滴れ" 
+たれた 1647118605 "垂れた" 
+おち 1647118590 "墜ち" 
+さがり 1647118548 "下がり" 
+さぎ 1647118535 "鷺" 
+rg 1647101855 "rg" 
+そ 1647101855 "ソ" 
+あずさ 1647101798 "梓" 
+ちば 1647101795 "千葉" 
+あやこ 1647101766 "綾子" 
+むね 1647101763 "宗" 
+さそう 1647101753 "佐々布" 
+みなも 1647101714 "みなも" 
+たかはし 1647101712 "高橋" 
+AV 1647094222 "AV" 
+つぼみ 1647094212 "つぼみ" 
+じばくれい 1647094206 "地縛霊" 
+おそわり 1647081492 "教わり" 
+あらため 1647081327 "改め" 
+あなため 1647081322 "あなため" 
+「」 1646944923 "「」" 
+「 1646944887 "「" 
+かいとう 1646944875 "かいとう" 
+ねれず 1646944850 "錬れず" 1646944862 "寝れず" 
+ともに 1646944724 "共に" 
+ひめ 1646944650 "姫" 1646944657 "ひめ" 
+@ 1646944643 "＠" 
+のり 1646944631 "乗り" 
+から 1646944631 "空" 
+かえでちゃん 1646929457 "楓ちゃん" 
+するな 1646854832 "するな" 
+しません 1646854818 "しません" 
+とうとう 1646676719 "とうとう" 
+ふんな 1646676689 "ふんな" 
+ぬくみ 1646676658 "温み" 
+いつくしみ 1646676645 "慈しみ" 
+ひと 1646676400 "人" 
+くに 1646676397 "国" 
+なか 1646676394 "中" 
+ちゅうこく 1646676391 "ちゅうこく" 
+ちゃんは 1646676373 "チャンは" 
+えのき 1646642898 "朴" 
+ぐらっす 1646642760 "グラッス" 
+がく 1646642736 "学" 
+しあわせ 1646642252 "幸せ" 
+もんど 1646642240 "主水" 
+こえら 1646642132 "こえら" 
+しょうしょう 1646642012 "しょうしょう" 
+x 1646586863 "X" 
+そお 1646586863 "曽於" 
+すい 1646586331 "スイ" 
+てぃー 1646586324 "ティー" 
+うぃー 1646586324 "ヰー" 
+すいーつ 1646578441 "スイーツ" 
+やさしく 1646578434 "優しく" 
+ゆめ 1646578389 "夢" 
+あめちゃん 1646571974 "あめちゃん" 
+ふどうさん 1646571937 "不動産" 
+? 1646567842 "？" 
+できません 1646567712 "できません" 
+もえちゃん 1646567533 "もえちゃん" 
+からし 1646567474 "辛子" 
+びっ 1646562249 "びっ" 
+こいし 1646560943 "恋し" 
+きょにゅう 1646560323 "巨乳" 
+たみ 1646560305 "民" 
+md 1646551209 "md" 
+まま 1646512139 "まま" 1646512093 "ママ" 
+わかい 1646512075 "若い" 
+あねご 1646508531 "姉御" 
+Music 1646497992 "Music" 
+とらひめ 1646497119 "虎姫" 
+ゆみ 1646497119 "弓" 
+_ 1646492767 "＿" 
+ままちゃん 1646491566 "ママちゃん" 
+びっち 1646491327 "ビッチ" 
+おそい 1646491321 "襲い" 
+かんこく 1646481772 "韓国" 
+もでる 1646475320 "モデル" 
+もばいる 1646475317 "モバイル" 
+おーとー 1646475317 "オートー" 
+いび 1646475287 "いび" 
+べ 1646475287 "ベ" 
+へいへい 1646475279 "へいへい" 
+れおん 1646327196 "レオン" 
+がん 1646327196 "ガン" 
+めず 1646248212 "めず" 
+ません 1646248201 "ません" 
+IZONE 1646229904 "IZONE" 
+いや 1646142708 "いや" 
+やそ 1646142695 "ヤソ" 
+おもい 1646141795 "思い" 
+たかし 1646141779 "高" 
+しめ 1646041803 "締め" 1646041815 "絞め" 
+くび 1646041803 "首" 
+れん 1646039762 "レン" 
+くせ 1646039762 "クセ" 
+あつし 1645983161 "アツシ" 
+おはら 1645983143 "オハラ" 
+ぞん 1645959316 "ゾン" 
+ぐらん 1645959316 "グラン" 
+とうひら 1645900486 "トウヒラ" 
+うんめい 1645900471 "運命" 
+いま 1645900410 "イマ" 
--- CAND_HISTORY
+g "G" 
+まん "マン" 
+た "た" "た" "た" 
+たま "弾" 
+t "T" "T" "T" 
+s "s" 
+っ "っ" "っ" "っ" 
+かせぐ "稼ぐ" 
+か "香" "香" "か" "課" 
+かせぎ "稼ぎ" 
+ごう "ごう" 
+ご "五" "五" "語" 
+い "い" "い" "い" "い" "イ" "イ" "い" "い" 
+ぐらと "グラト" 
+とん "トン" "屯" 
+こ "個" "子" "子" 
+さが "性" "性" "性" 
+さ "サ" "さ" "さ" "さ" "サ" 
+こしょう "誇称" 
+こさが "濃さが" 
+もし "もし" 
+も "も" "も" 
+こわし "壊し" "壊し" 
+くずし "崩し" 
+く "区" 
+おおね "大根" "大根" 
+お "お" "お" "お" 
+おお "大" "大" "大" 
+まさるね "勝るね" 
+ん "ん" "ン" 
+まさる "克" "マサル" "賢" "マサル" "優" "優" 
+まさ "マサ" 
+ま "間" "馬" "マ" "間" "間" 
+あ "あ" "ア" "亜" "あ" "亜" "亜" "亜" 
+え "エ" "エ" 
+めん "麺" 
+つけ "漬け" 
+つ "津" 
+う "宇" "う" 
+ぎ "ぎ" 
+まさゆき "昌幸" 
+まだ "真田" 
+d "Ｄ" "D" 
+まさだ "まさだ" 
+とき "辰" "トキ" "時" 
+と "都" "と" "と" "と" 
+」 "」" "」" "」" "』" "』" "』" "』" 
+きき "利き" 
+き "き" "輝" "き" "き" "き" "き" "き" "き" 
+り "利" "利" "り" "リ" "り" "り" 
+ろ "ロ" "呂" "ろ" "路" "ろ" "櫓" 
+かが "花芽" "科が" 
+よしき "義材" 
+よし "ヨシ" 
+よ "世" "よ" "ヨ" 
+あし "足" 
+かげ "陰" 
+まつかげ "松蔭" 
+よしだ "吉田" 
+らっきょう "辣韮" 
+ら "ら" "等" 
+あい "藍" 
+S "S" 
+TV "TV" "TV" "TV" "TV" "TV" "TV" 
+T "T" 
+ちゃん "ちゃん" "ちゃん" "ちゃん" "ちゃん" "ちゃん" "ちゃん" "ch" "ch" 
+ぴ "ぴ" "ぴ" "ぴ" "ぴ" "ぴ" "ぴ" 
+かきん "かきん" 
+ばんぐみ "番組" 
+は "は" "は" "は" "は" 
+h "H" 
+ぼか "ボカ" 
+より "依里" 
+たち "タチ" 
+・ "・" "・" "・" "/" 
+まこと "真" 
+むそう "無双" "無双" "無双" "無双" "無双" "無双" 
+そ "ソ" 
+ほくと "北斗" "北斗" "北斗" "北斗" "北斗" 
+ね "ネ" "根" 
+め "芽" 
+ぬ "ぬ" 
+み "み" "み" "実" "み" "み" "み" "三" 
+ねり "ねり" 
+もんすと "モンスト" "モンスト" "モンスト" "モンスト" "モンスト" "モンスト" "モンスト" 
+もん "門" "もん" 
+てっけん "鉄拳" 
+け "ケ" "け" "け" 
+て "テ" "手" "テ" "テ" "手" 
+FMP "FMP" "FMP" 
+fmp "fmp" 
+f "F" 
+ぎあす "ギアス" "ギアス" 
+こーど "コード" 
+こー "コー" 
+こらぼ "コラボ" "コラボ" "コラボ" 
+えみ "笑み" 
+えまず "笑まず" 
+わらい "笑い" "笑い" "笑い" 
+わ "わ" 
+ふう "ふう" 
+かえで "楓" "楓" "楓" 
+あー "アー" 
+いる "射る" 
+せいめん "セイメン" 
+せ "セ" "セ" "背" 
+ねらい "狙い" 
+ねらって "狙って" 
+おく "奥" 
+しを "しを" 
+し "シ" "シ" "し" "し" "し" "師" "市" "し" 
+みや "宮" 
+らら "らら" "ララ" 
+あんざい "安斎" "安斎" 
+じょしん "女神" "女神" "女神" 
+みはる "みはる" "みはる" "みはる" "みはる" 
+ざき "咲き" "咲き" "咲き" 
+ざ "ザ" 
+はね "羽" "羽" "羽" "羽" "羽" 
+うさ "憂さ" "憂さ" 
+ちゅう "ちゅう" 
+ちゅ "チュ" "チュ" 
+ふっく "ふっく" "フック" 
+さき "咲き" "前" "裂き" "埼" "前" "裂き" "埼" 
+はると "晴斗" 
+えいみちゃん "えいみちゃん" "えいみちゃん" "えいみちゃん" "えいみちゃん" "えいみちゃん" "えいみちゃん" "えいみちゃん" "えいみちゃん" 
+えいみ "えいみ" "えいみ" "えいみ" "えいみ" "えいみ" "えいみ" "えいみ" "えいみ" 
+だめだ "駄目だ" 
+だ "だ" "だ" 
+いやいや "いやいや" "いやいや" 
+いや "いや" 
+やな "やな" "梁" 
+や "弥" "弥" "弥" 
+わな "罠" 
+はり "梁" "張り" 
+からし "辛子" 
+から "空" 
+ろく "勒" 
+さけろ "割けろ" 
+なやみ "悩み" 
+な "な" "な" "名" "奈" "な" "ナ" "な" "な" 
+やまい "病" 
+あらみ "新見" 
+あやみ "彩美" 
+れ "れ" "れ" "れ" "れ" "れ" "れ" 
+おんな "女" 
+おとこ "男" "男" "男" "男" "男" "男" "男" "男" 
+みだす "乱す" "乱す" 
+みだされる "乱される" 
+みだれて "乱れて" 
+みだれ "乱れ" 
+みだれよ "乱れよ" 
+くずれ "崩れ" 
+ちゃんねる "チャンネル" 
+さぶ "サブ" 
+よみ "読み" "読み" "読み" 
+だい "大" "ダイ" 
+なみだ "涙" "泪" 
+やばい "ヤバい" 
+ゆあちゃん "ゆあちゃん" 
+ゆあ "ユア" "ゆあ" 
+ゆ "蝓" 
+げきから "激辛" "激辛" 
+じ "地" 
+かれた "枯れた" 
+とうあちゃん "とうあちゃん" 
+とう "唐" 
+こし "超し" 
+じゃ "邪" "邪" 
+。 "。" 
+おんがく "音楽" 
+ごとく "如く" "五徳" "如く" "如く" 
+が "が" "牙" "が" "が" "が" "が" "が" "我" 
+OST "OST" "OST" "OST" "OST" 
+ひさ "久" 
+だし "出し" 
+たに "谷" 
+みどり "緑" 
+ど "ド" "ド" 
+で "で" 
+なつき "夏樹" 
+はなえ "花江" 
+はな "はな" "はな" "ハな" "花" "華" "華" "はな" "鼻" 
+ぞくせい "属性" 
+DD "DD" "DD" "DD" "DD" "DD" 
+すぱろぼ "スパロボ" "スパロボ" "スパロボ" 
+す "ス" "す" 
+つるぎ "剣" "剣" 
+つる "つる" 
+おおが "大が" 
+ふかだ "深田" "深田" "深田" 
+ごとし "事し" 
+Toki "Toki" 
+うざー "ウザー" 
+fぁ "Fぁ" 
+ひっさつ "必殺" 
+やなだ "簗田" 
+りょうり "料理" 
+せよ "せよ" "セヨ" 
+ばとす "バトス" 
+ばー "バー" 
+そな "ソナ" 
+ぜろ "ゼロ" 
+あーるどの "アールドノ" 
+どん "丼" 
+ー "ー" 
+かれん "カレン" "カレン" "かれん" "かれん" 
+つき "月" "附き" 
+こう "コウ" "幸" 
+あか "アカ" 
+たー "ター" 
+べっ "ベッ" 
+べ "ベ" 
+やまぐち "山口" 
+かつ "勝つ" 
+ほう "砲" 
+つつ "筒" 
+やり "槍" "鎗" 
+かま "鎌" 
+まけ "敗け" "敗け" 
+まかる "罷る" 
+、 "、" "、" "、" "、" "、" "、" "、" "、" 
+る "ル" "る" "ル" "る" 
+こーどぎあす "コードギアス" 
+だー "ダー" "だー" 
+XIII "XIII" 
+しゅ "シュ" 
+るーし "ルーシ" 
+IX "IX" 
+しと "使徒" 
+おちる "墜ちる" 
+おち "墜ち" 
+ぶち "撃ち" 
+すざく "スザク" 
+を "を" "を" "を" "を" "を" "を" 
+うおら "宇夫ら" 
+あね "姉" 
+おね "緒ね" "おね" 
+おんせん "温泉" 
+おんぞん "オンゾン" 
+いらいしゃ "依頼者" 
+めとる "メトル" 
+ず "ズ" "ず" 
+ぃ "ィ" 
+めんしょ "メンショ" 
+たいせん "大戦" 
+ろぼっと "ロボット" 
+ろぼ "ロボ" 
+すっ "スッ" "スッ" 
+() "()" "()" "()" "()" "()" "()" "()" "()" 
+( "(" "(" "(" "(" "(" 
+しら "白" "白" "白" "白" 
+もんすたー "モンスター" 
+ばら "薔薇" "ばら" 
+まんが "漫画" 
+=() "=()" 
+) ")" ")" "）" 
+ひろゆき "弘之" "ヒロユキ" 
+ひと "人" "人" "人" 
+さわの "沢野" 
+さわ "沢" "沢" 
+みなみ "みなみ" "みなみ" 
+さがら "相良" 
+たつ "竜" 
+きゅう "九" 
+みなと "港" "港" 
+! "！" "！" 
+かに "カニ" 
+ど・ "ド・" 
+ほ・ "ホ・" 
+に "に" "に" "に" "に" "に" "に" "に" "に" 
+の "の" "の" 
+すみ "住み" 
+いまな "今な" 
+いま "イマ" 
+はし "嘴" 
+つの "角" 
+もと "元" "下" "下" 
+みかみ "三上" "三上" "三上" "三上" "三上" 
+ゆう "悠" "猶" 
+まさき "真咲" "まさき" 
+あんどう "安藤" 
+おいち "お市" 
+かむり "被り" 
+かぶり "被り" 
+かむい "カムイ" 
+C "Ｃ" 
+なる "なる" "なる" 
+かい "かい" 
+いちか "いちか" "いちか" 
+いち "壱" "壱" "壱" "壱" "壱" "イチ" 
+まつもと "松本" "松本" 
+みけん "ミケン" 
+おわらい "お笑い" 
+やまぎし "山岸" 
+やまきし "八巻氏" 
+みずき "みずき" 
+あいめ "藍め" 
+しのちゃん "しのちゃん" 
+しん "シン" 
+くるま "車" 
+せき "関" 
+くろ "黒" 
+された "された" "された" "された" "された" "された" "された" "された" "された" 
+する "する" "する" 
+せず "せず" "せず" "せず" 
+づき "ヅキ" 
+ずき "ズキ" 
+される "される" 
+せし "せし" 
+るたーす "ルタース" 
+すけ "介" 
+おおぎり "大喜利" "大喜利" "大喜利" 
+tv "tv" 
+きんちゃん "きんちゃん" 
+ぴき "ぴき" 
+えすて "エステ" 
+せめられる "責められる" 
+せめ "責め" "責" 
+せまれる "セマレル" 
+もも "桃" "桃" "桃" 
+ふぁ "ファ" 
+ちじょ "痴女" "痴女" 
+ゆういち "悠一" 
+つむ "積む" 
+あらって "洗って" 
+けよ "けよ" 
+かられた "かられた" 
+けた "けた" 
+おう "王" 
+きみ "君" 
+きし "騎士" 
+ひじり "聖" 
+くだけ "砕け" "砕け" 
+のろい "呪い" "呪い" 
+にがし "逃し" "逃し" 
+のがし "逃し" 
+どらえもん "ドラえもん" 
+かざ "風" 
+あがり "アガり" "揚がり" "揚がり" 
+あがった "揚がった" 
+つかった "遣った" 
+つかい "ツカイ" "遣い" 
+あゆみ "歩" 
+めき "メキ" 
+げる "げる" 
+むら "村" "村" "村" 
+よしひこ "佳彦" 
+せん "戦" 
+TCN "TCN" 
+つら "面" "ツラ" 
+つかまず "攫まず" 
+とらい "トライ" 
+とら "虎" 
+つかまる "捕まる" 
+けもの "獣" 
+いき "生き" "行" 
+よせ "寄せ" 
+ひとみ "ひとみ" "ひとみ" 
+たなか "田中" "田中" "田中" 
+はつじょう "発条" 
+はっちょう "８帖" 
+なつみ "夏美" 
+なつみちゃん "なつみちゃん" 
+jpg "jpg" 
+あけみ "明珠" 
+つかる "漬かる" 
+くにお "国夫" 
+くに "国" "国" 
+かわい "川井" "河合" 
+び "び" "び" "び" 
+ために "溜に" 
+きょうし "教師" "教師" 
+かてい "家庭" "家庭" 
+しなりお "シナリオ" 
+ちゅうか "中華" "中華" "中華" 
+なか "中" "中" "中" 
+ぐんだ "軍だ" 
+だんご "団子" 
+ぺいん "ペイン" 
+ぜいが "ゼイガ" 
+ぜい "ゼイ" 
+ぜー "З" "З" 
+せめた "責めた" 
+あまい "甘い" "甘い" "甘い" "甘い" "甘い" "甘い" 
+こい "恋" "濃い" 
+わたしを "私を" "私を" "私を" 
+わたし "私" 
+まな "愛" "愛" "愛" 
+じあい "慈愛" 
+しっぱい "失敗" 
+しろうと "素人" 
+ひらく "拓く" 
+ながれ "流れ" "流れ" 
+なが "永" 
+げったー "ゲッター" 
+もうされた "申された" 
+まをされた "魔をされた" 
+BGM "BGM" 
+しれん "試練" 
+わらった "笑った" 
+はい "這い" 
+りき "力" 
+ぞー "ゾー" 
+くるー "クルー" 
+ながれず "流れず" 
+なくぞ "泣くぞ" 
+かません "かません" "かません" 
+なかず "泣かず" 
+なかません "仲間せん" 
+かな "金" "金" 
+さち "薩" 
+srwっ "srwっ" 
+srw "srw" 
+ありな "有りな" 
+まず "先ず" 
+もとき "元木" 
+もとめ "基め" 
+さいかい "再会" 
+ひゅー "ヒュー" "ヒュー" 
+あっぷる "アップル" 
+ぴょう "ピョウ" 
+じょゆう "女優" 
+せくし "セクシ" 
+らんど "ランド" 
+きらら "キララ" "キララ" 
+きら "基ら" 
+まりな "茉莉な" 
+しらいし "白石" 
+まりりん "まりりん" 
+ひかり "ひかり" "ひかり" 
+あおぞら "青空" "青空" 
+くい "９位" "杭" 
+くらい "昏い" "暗い" 
+くら "クラ" "クラ" "9ら" 
+くらし "苦らし" 
+ああ "ああ" 
+らめし "ラメシ" 
+きらめき "煌めき" 
+はじめ "ハジメ" 
+おわり "終" 
+しまい "仕舞い" 
+しまず "染まず" 
+すすまず "進まず" 
+せめし "責し" "責めし" 
+せまい "狭い" 
+# "#" "#" 
+もぼ "モボ" 
+UFO "UFO" 
+じゅーく "ジューク" 
+さーべる "サーベル" 
+いぬっす "イヌッス" 
+まい "まい" "まい" 
+いぬす "いぬす" 
+たす "＋" 
+たし "タシ" 
+れい "レイ" 
+おし "押し" "押し" 
+ええ "ええ" 
+ひき "引き" 
+かわり "換わり" "変り" 
+むかい "向い" "向" 
+あいすくりーむ "アイスクリーム" 
+ぎゃる "ギャル" 
+あすか "明日香" 
+こすぷれ "コスプレ" 
+ねね "ねね" 
+のがれし "逃れし" 
+にがい "苦い" 
+うぇ "ゑ" 
+とび "飛び" 
+とらわれた "囚われた" 
+さげし "下げし" 
+おろし "下ろし" 
+くだし "下し" "下し" 
+むき "剥き" 
+うち "撃ち" 
+げいげき "迎撃" 
+こさも "こさも" 
+われし "われし" "割れし" 
+さいこう "最高" "最高" "最高" 
+もの "物" "物" "物" 
+かない "適い" "適い" "課内" 
+せみ "蜩" "蝉" 
+たれ "滴れ" 
+さがり "下がり" 
+さぎ "鷺" 
+あずさ "梓" 
+ちば "千葉" 
+あやこ "綾子" 
+むね "宗" 
+さそう "佐々布" 
+みなも "みなも" "みなも" "みなも" 
+たかはし "高橋" "高橋" 
+たか "たか" 
+かばし "かばし" 
+AV "AV" 
+つぼみ "つぼみ" 
+じばくれい "地縛霊" 
+おそわり "教わり" "教わり" 
+あらため "改め" 
+あなため "あなため" 
+「」 "「」" "「」" "「」" 
+「 "「" "「" "「" "「" 
+@ "＠" 
+かいとう "かいとう" 
+ねれず "寝れず" "錬れず" 
+ともに "共に" 
+ひめ "ひめ" "姫" "姫" 
+のり "乗り" 
+かえでちゃん "楓ちゃん" 
+するな "するな" 
+しません "しません" 
+とうとう "とうとう" "とうとう" 
+ふんな "ふんな" 
+ぬくみ "温み" 
+いつくしみ "慈しみ" 
+ちゅうこく "ちゅうこく" 
+ちゃんは "チャンは" 
+_ "＿" 
+えのき "朴" 
+ぐらっす "グラッス" 
+がく "学" 
+しあわせ "幸せ" 
+もんど "主水" 
+こえら "こえら" 
+しょうしょう "しょうしょう" 
+そお "曽於" 
+すい "スイ" 
+うぃー "ヰー" 
+すいーつ "スイーツ" 
+やさしく "優しく" 
+ゆめ "夢" 
+あめちゃん "あめちゃん" 
+ふどうさん "不動産" 
+? "？" 
+もえちゃん "もえちゃん" 
+びっ "びっ" 
+こいし "恋し" 
+きょにゅう "巨乳" 
+たみ "民" 
+まま "まま" "ママ" "まま" 
+わかい "若い" 
+あねご "姉御" 
+Music "Music" 
+ゆみ "弓" "弓" 
+ままちゃん "ママちゃん" "ママちゃん" 
+びっち "ビッチ" 
+おそい "襲い" 
+かんこく "韓国" 
+もでる "モデル" 
+おーとー "オートー" 
+いび "いび" 
+へいへい "へいへい" 
+がん "ガン" 
+めず "めず" 
+ません "ません" 
+IZONE "IZONE" 
+やそ "ヤソ" 
+おもい "思い" 
+たかし "高" 
+しめ "絞め" "締め" 
+くび "首" 
+れん "レン" 
+くせ "クセ" 
+あつし "アツシ" "アツシ" "アツシ" 
+おはら "オハラ" "オハラ" 
+ぞん "ゾン" 
+ぐらん "グラン" 
+とうひら "トウヒラ" 
+うんめい "運命" 
+おーぷにんぐ "オープニング" 
+でび "デビ" 
+などー "ナドー" 
+とー "トー" 
+まゆみ "まゆみ" "まゆみ" 
+さっきょくか "作曲家" 
+)() ")()" 
+いちこ "一子" 
+はしもと "橋本" "橋本" 
+Dying "Dying" 
+ほどき "解き" 
+てぃか "ティカ" 
+すわ "スワ" 
+あむ "アム" 
+りん "リン" 
+がと "ガト" 
+みやけ "三宅" "みやけ" "三宅" 
+まれ "まれ" 
+いたみ "痛み" "痛み" "痛み" 
+たえず "耐えず" 
+きゃく "却" 
+めつ "滅" 
+ひでし "秀" 
+うえむら "植村" 
+かたかな "片仮名" 
+さとし "聡" 
+ふける "老ける" 
+ふけ "老け" "老け" "老け" 
+あきと "アキト" 
+とめ "留め" 
+おに "鬼" 
+よる "夜" 
+ひゃっき "百機" 
+くたば "くたば" "くたば" 
+たべません "たべません" 
+えません "えません" 
+えず "えず" 
+がり "狩り" 
+ゆき "ユキ" "ゆき" "由紀" "ゆき" 
+FC2 "FC2" 
+たけお "丈夫" 
+あいぜん "愛染" 
+かわだ "かわだ" 
+あなる "アナル" 
+なめる "舐める" 
+める "める" 
--- OCHAIRE
+ぐらとにーる 2 3 "グラト" 3 "ニール" 
+つけめん 2 2 "漬け" 2 "麺" 
+ぼかろ 2 2 "ボカ" 1 "ロ" 
+ふうあ 2 2 "ふう" 1 "あ" 
+あーてみす 3 2 "アー" 1 "テ" 2 "ミス" 
+あーて 2 2 "アー" 1 "テ" 
+しをん 2 2 "しを" 1 "ん" 
+くずれこわし 2 3 "崩れ" 3 "壊し" 
+じゃ。 2 2 "邪" 1 "。" 
+fぁc 2 2 "Fぁ" 1 "C" 
+ちゅせよ 2 2 "チュ" 2 "せよ" 
+ばーばとす 2 2 "バー" 3 "バトス" 
+あーるどのあ 2 5 "アールドノ" 1 "ア" 
+せえらむ 3 1 "セ" 1 "エ" 2 "ラム" 
+べったーまん 3 2 "ベッ" 2 "ター" 2 "マン" 
+たーまん 2 2 "ター" 2 "マン" 
+べったー 2 2 "ベッ" 2 "ター" 
+かつひら 2 2 "勝つ" 2 "平" 
-まけほく 2 2 "敗け" 2 "北" 
-だーりとん 3 2 "ダー" 1 "リ" 2 "トン" 
-だーり 2 2 "ダー" 1 "リ" 
-られる 3 1 "ら" 1 "れ" 1 "る" 
-れらる 3 1 "れ" 1 "等" 1 "流" 
-こーねりあ 3 2 "コー" 1 "ネ" 2 "リア" 
-こーね 2 2 "コー" 1 "ネ" 
-うおら。 2 3 "宇夫ら" 1 "。" 
-あねちゃん 2 2 "姉" 3 "ch" 
-おねちゃん 2 2 "緒ね" 3 "ch" 
-めとるず 2 3 "メトル" 1 "ズ" 
-だいめんしょん 3 2 "ダイ" 4 "メンショ" 1 "ん" 
-めんしょん 2 4 "メンショ" 1 "ん" 
-だいめんしょ 2 2 "ダイ" 4 "メンショ" 
-すっぱー 2 2 "スッ" 2 "パー" 
-ど・すっかにおす 4 2 "ド・" 2 "スッ" 2 "カニ" 2 "オス" 
-ほ・ど・すっかに 4 2 "ホ・" 2 "ド・" 2 "スッ" 2 "カニ" 
-すっかにおす 3 2 "スッ" 2 "カニ" 2 "オス" 
-ど・すっかに 3 2 "ド・" 2 "スッ" 2 "カニ" 
-ほ・ど・すっ 3 2 "ホ・" 2 "ド・" 2 "スッ" 
-かにおす 2 2 "カニ" 2 "オス" 
-すっかに 2 2 "スッ" 2 "カニ" 
-ど・すっ 2 2 "ド・" 2 "スッ" 
-ほ・ど・ 2 2 "ホ・" 2 "ド・" 
-とんもん 2 2 "屯" 2 "門" 
-どんもん 2 2 "丼" 2 "もん" 
-みかみゆうあ 3 3 "三上" 2 "悠" 1 "亜" 
-ゆうあ 2 2 "悠" 1 "亜" 
-みかみゆう 2 3 "三上" 2 "悠" 
-みかみゆあ 2 3 "三上" 2 "ユア" 
-だーしのちゃん 2 2 "だー" 5 "しのちゃん" 
-くろぜき 2 2 "黒" 2 "関" 
-へるたーすけるたー 4 1 "へ" 4 "ルタース" 1 "ケ" 3 "ルター" 
-るたーすけるたー 3 4 "ルタース" 1 "ケ" 3 "ルター" 
-へるたーすけ 3 1 "へ" 4 "ルタース" 1 "ケ" 
-るたーすけ 2 4 "ルタース" 1 "ケ" 
-ぴききんちゃん 2 2 "ぴき" 5 "きんちゃん" 
-ちふl。 4 1 "知" 1 "不" 1 "L" 1 "。" 
-vちふl 4 1 "V" 1 "知" 1 "不" 1 "L" 
-ふぁvちふ 4 2 "ファ" 1 "V" 1 "知" 1 "不" 
-ふl。 3 1 "不" 1 "L" 1 "。" 
-ちふl 3 1 "知" 1 "不" 1 "L" 
-vちふ 3 1 "V" 1 "知" 1 "不" 
-ふぁvち 3 2 "ファ" 1 "V" 1 "知" 
-ふぁv 2 2 "ファ" 1 "V" 
-くだけさき 2 3 "砕け" 2 "埼" 
-かざろ 2 2 "風" 1 "呂" 
-てあC 3 1 "テ" 1 "亜" 1 "Ｃ" 
-つらしろい 2 2 "面" 3 "白い" 
-ぐんだm 2 3 "軍だ" 1 "M" 
-ぜーがぱえいん 4 2 "З" 1 "が" 1 "波" 3 "会陰" 
-がぱえいん 3 1 "が" 1 "波" 3 "会陰" 
-ぜーがぱ 3 2 "З" 1 "が" 1 "波" 
-ぜーが 2 2 "З" 1 "が" 
-ぜーがぺいん 3 2 "З" 1 "が" 3 "ペイン" 
-あまいせめ 2 3 "甘い" 2 "責め" 
-でえp。 4 1 "で" 1 "エ" 1 "P" 1 "。" 
-えp。 3 1 "エ" 1 "P" 1 "。" 
-でえp 3 1 "で" 1 "エ" 1 "P" 
-くるーぞー 2 3 "クルー" 2 "ゾー" 
-srwっd 2 4 "srwっ" 1 "Ｄ" 
-ひゅーけ 2 3 "ヒュー" 1 "け" 
-くらわろ 3 2 "クラ" 1 "わ" 1 "ろ" 
-くらわ 2 2 "クラ" 1 "わ" 
-れいしっく 2 2 "レイ" 3 "シック" 
-おしかわり 2 2 "押し" 3 "換わり" 
-tうぃっれr 4 1 "T" 3 "ゐっ" 1 "れ" 1 "R" 
-うぃっれr 3 3 "ゐっ" 1 "れ" 1 "R" 
-tうぃっれ 3 1 "T" 3 "ゐっ" 1 "れ" 
-うぃっれ 2 3 "ゐっ" 1 "れ" 
-うぃってr。 4 3 "ゐっ" 1 "テ" 1 "R" 1 "。" 
-tうぃってr 4 1 "T" 3 "ゐっ" 1 "テ" 1 "R" 
-てr。 3 1 "テ" 1 "R" 1 "。" 
-うぃってr 3 3 "ゐっ" 1 "テ" 1 "R" 
-tうぃって 3 1 "T" 3 "ゐっ" 1 "テ" 
-うぃって 2 3 "ゐっ" 1 "テ" 
-こすぷれい 2 4 "コスプレ" 1 "イ" 
-ねtfぁv。 4 1 "根" 3 "tfぁ" 1 "V" 1 "。" 
-tfぁv。 3 3 "tfぁ" 1 "V" 1 "。" 
-ねtfぁv 3 1 "根" 3 "tfぁ" 1 "V" 
-tfぁv 2 3 "tfぁ" 1 "V" 
-ひゅーめいん 2 3 "ヒュー" 3 "メイン" 
-うぇbm 2 2 "ゑ" 2 "bm" 
-おそrg 3 1 "お" 1 "ソ" 2 "rg" 
-からのり 2 2 "空" 2 "乗り" 
-そおx 2 2 "曽於" 1 "X" 
-そうぃーてぃー 3 1 "ソ" 3 "ヰー" 3 "ティー" 
-うぃーてぃー 2 3 "ヰー" 3 "ティー" 
-ふどうさんちゃん 2 5 "不動産" 3 "ちゃん" 
-びっちゃん 2 2 "びっ" 3 "ちゃん" 
-あねごちゃん 2 3 "姉御" 3 "ちゃん" 
-ゆみとらひめ 2 2 "弓" 4 "虎姫" 
-おーとーもばいる 2 4 "オートー" 4 "モバイル" 
-がんれおん 2 2 "ガン" 3 "レオン" 
-やそど 2 2 "ヤソ" 1 "ド" 
-くびしめ 2 2 "首" 2 "締め" 
-えくせれん 3 1 "エ" 2 "クセ" 2 "レン" 
-くせれん 2 2 "クセ" 2 "レン" 
-ぐらんぞん 2 3 "グラン" 2 "ゾン" 
-とーなどー 2 2 "トー" 3 "ナドー" 
-すわすてぃか 3 2 "スワ" 1 "ス" 3 "ティカ" 
-すわす 2 2 "スワ" 1 "ス" 
-がとりん 2 2 "ガト" 2 "リン" 
-まれた 2 2 "まれ" 1 "た" 
-あまいもの 2 3 "甘い" 2 "物" 
-srw。 2 3 "srw" 1 "。" 
-ふけひと 2 2 "老け" 2 "人" 
-ひゃっきよるいき 3 4 "百機" 2 "夜" 2 "行" 
-よるいき 2 2 "夜" 2 "行" 
-ひゃっきよる 2 4 "百機" 2 "夜" 
-くたばろ 2 3 "くたば" 1 "櫓" 
-くたばず 2 3 "くたば" 1 "ず" 
-えいみふかだ 2 3 "えいみ" 3 "深田" 
-はながり 2 2 "花" 2 "狩り" 
-そむきし 2 3 "背き" 1 "し" 
-りょーあらい 2 3 "リョー" 3 "アライ" 
-はまむず 3 2 "はま" 1 "む" 1 "ず" 
-はまむ 2 2 "はま" 1 "む" 
-ちょしみ 2 2 "チョ" 2 "シミ" 
-てっかず 2 2 "テッ" 2 "カズ" 
-なかつる 2 2 "なか" 2 "つる" 
-()」 2 2 "()" 1 "』" 
-りゅーいち 2 3 "リュー" 2 "イチ" 
-さおんどちらっく 4 1 "サ" 3 "オンド" 1 "チ" 3 "ラック" 
-おんどちらっく 3 3 "オンド" 1 "チ" 3 "ラック" 
-さおんどち 3 1 "サ" 3 "オンド" 1 "チ" 
-おんどち 2 3 "オンド" 1 "チ" 
-おりじねる 2 3 "オリジ" 2 "ネル" 
--- INDEPPAIR
+玉ねぎ "玉葱" 
+万 "マン" 
+他 "た" 
+玉 "弾" 
+可 "香" 
+号 "ごう" 
+語 "五" 
+意 "イ" 
+子 "個" 
+こしょう "誇称" 
+こ "コ" 
+声 "こえ" 
+おお "大" 
+正 "マサ" 
+絵 "エ" 
+面 "麺" 
+鵜 "宇" 
+偽 "ぎ" 
+正行 "昌幸" 
+まだ "真田" 
+D "Ｄ" 
+トキ "辰" 
+時 "トキ" 
+戸 "都" 
+』 "」" 
+機器 "利き" 
+期 "輝" 
+炉 "呂" 
+き "輝" 
+与式 "義材" 
+よし "ヨシ" 
+影 "陰" 
+らっきょう "辣韮" 
+愛 "藍" 
+葉 "は" 
+より "依里" 
+たち "タチ" 
+誠 "真" 
+無 "む" 
+目 "芽" 
+未 "実" 
+毛 "け" 
+手 "テ" 
+輪 "わ" 
+封 "ふう" 
+あー "アー" 
+い "射" 
+背 "せ" 
+市 "し" 
+と "都" 
+う "宇" 
+見張 "みは" 
+中 "ちゅう" 
+先 "埼" 
+ダメ "駄目" 
+太 "だ" 
+嫌 "いや" 
+梁 "やな" 
+矢 "弥" 
+張り "梁" 
+針 "張り" 
+からし "辛子" 
+殻 "空" 
+六 "勒" 
+咲 "割" 
+名 "奈" 
+実 "み" 
+よ "世" 
+第 "大" 
+泪 "涙" 
+涙 "泪" 
+堕 "だ" 
+な "奈" 
+湯 "蝓" 
+字 "地" 
+ダイ "大" 
+マサル "克" 
+五徳 "如く" 
+牙 "が" 
+ごとく "五徳" 
+我 "牙" 
+だし "出し" 
+度 "ド" 
+英恵 "花江" 
+花 "華" 
+す "ス" 
+が "牙" 
+如く "五徳" 
+得 "え" 
+素 "ソ" 
+可憐 "カレン" 
+かれん "カレン" 
+こう "薩" 
+赤 "アカ" 
+開 "拓" 
+方 "砲" 
+つつ "筒" 
+み "実" 
+鎗 "槍" 
-やり "鎗" 
-釜 "鎌" 
-落ち "墜ち" 
-賢 "マサル" 
-図 "ず" 
-すっ "スッ" 
-しら "白" 
-ばら "薔薇" 
-薔薇 "ばら" 
-ヒロユキ "弘之" 
-南 "みなみ" 
-皆 "みな" 
-龍 "竜" 
-球 "九" 
-か "香" 
-ど "ド" 
-二 "に" 
-橋 "嘴" 
-まさき "真咲" 
-アンドウ "安藤" 
-かぶり "被り" 
-神威 "カムイ" 
-c "Ｃ" 
-猶 "悠" 
-夕 "猶" 
-回 "かい" 
-し "シ" 
-山木 "八巻" 
-水木 "みずき" 
-席 "関" 
-課 "か" 
-せめ "責め" 
-攻め "責め" 
-祐一 "悠一" 
-桁 "けた" 
-岸 "騎士" 
-前 "埼" 
-苦 "逃" 
-ろ "呂" 
-揚が "アガ" 
-上が "揚が" 
-使 "遣" 
-使い "遣い" 
-歩み "歩" 
-義彦 "佳彦" 
-栓 "戦" 
-つか "攫" 
-行 "生き" 
-寄席 "寄せ" 
-吉 "ヨシ" 
-瞳 "ひとみ" 
-発情 "発条" 
-なつみ "夏美" 
-明美 "明珠" 
-浸か "漬か" 
-邦夫 "国夫" 
-河合 "川井" 
-美 "び" 
-ため "溜" 
-責 "責め" 
-マナ "藍" 
-師 "し" 
-かな "金" 
-幸 "薩" 
-あり "有り" 
-まず "先ず" 
-本木 "元木" 
-俵 "ピョウ" 
-雲母 "キララ" 
-光 "ひかり" 
-悔い "杭" 
-暗 "昏" 
-きらめき "煌めき" 
-初め "ハジメ" 
-終わり "終" 
-姉妹 "仕舞い" 
-責め "責" 
-枚 "まい" 
-犬 "いぬ" 
-れい "レイ" 
-代わり "変り" 
-向 "向い" 
-向かい "向" 
-飛鳥 "明日香" 
-寝 "ね" 
-とらわれ "囚われ" 
-卸 "下ろし" 
-家内 "課内" 
-蝉 "蜩" 
-セミ "蝉" 
-タレ "滴れ" 
-詐欺 "鷺" 
-胸 "宗" 
-タカ "たか" 
-カバ "かば" 
-ともに "共に" 
-姫 "ひめ" 
-海苔 "乗り" 
-かえで "楓" 
-踏 "ふ" 
-ぬくみ "温み" 
-榎 "朴" 
-学 "まな" 
-はな "華" 
-やさし "優し" 
-ママ "まま" 
-まま "ママ" 
-遅 "襲" 
-勧告 "韓国" 
-増 "ま" 
-優 "マサル" 
-恭士 "高" 
-締め "絞め" 
-くせ "クセ" 
-檀 "まゆみ" 
-凛 "リン" 
-宮家 "三宅" 
-客 "却" 
-上村 "植村" 
-カタカナ "片仮名" 
-三 "み" 
-耽 "老け" 
-路 "ろ" 
-止め "留め" 
-行き "行" 
-櫓 "ろ" 
-食べ "たべ" 
-鼻 "はな" 
-ガリ "狩り" 
-ゆき "ユキ" 
-雪 "ゆき" 
-武雄 "丈夫" 
-アイゼン "愛染" 
-シ "し" 
-祝い "岩井" 
-和夫 "一男" 
-渦 "うず" 
-訴権 "祖堅" 
-正義 "まさよし" 
-浜 "はま" 
-光博 "充弘" 
-公宏 "公弘" 
-あべ "阿部" 
-阿部 "あべ" 
-安倍 "あべ" 
-駆動 "工藤" 
-広田 "弘太" 
-圭一 "啓一" 
--- UNKNOWN_WORD
+せいめん "セイメン" 
+ゆあちゃん "ゆあちゃん" 
+とうあちゃん "とうあちゃん" 
+あーるどの "アールドノ" 
+おんぞん "オンゾン" 
+めんしょ "メンショ" 
+しのちゃん "しのちゃん" 
+るたーす "ルタース" 
+せまれる "セマレル" 
+まりりん "まりりん" 
+いぬっす "イヌッス" 
+かいとう "かいとう" 
+ちゅうこく "ちゅうこく" 
+ぐらっす "グラッス" 
+しょうしょう "しょうしょう" 
+あめちゃん "あめちゃん" 
+もんすと "モンスト" 
+とうひら "トウヒラ" 
+えいみちゃん "えいみちゃん" 
+ひろゆき "ヒロユキ" 
+あきひろ "アキヒロ" 
+たかゆき "タカユキ" 
+しあわせ "シアワセ" 
+おおたに "おおたに" 
+まさよし "マサヨシ" 
+のりゆき "ノリユキ" 
+かつろう "カツロウ" 
+みつひろ "ミツヒロ" 
+きみひろ "キミヒロ" 
+まさはる "マサハル" 
+けいいち "ケイイチ" 
+よしひと "ヨシヒト" 
+いしはま "いしはま" 
+はまもと "はまもと" 
+じゅんいち "ジュンイチ" 
+こうさき "こうさき" 
+さきもと "さきもと" 
+あきたか "アキタカ" 
+とおやま "とおやま" 
+いのうえ "いのうえ" 
+おおくぼ "おおくぼ" 
+かずひろ "カズヒロ" 
+なかむら "なかむら" 
+やさしい "ヤサシイ" 
+のぶよし "ノブヨシ" 
+やすのり "ヤスノリ" 
--- SUFFIX_HISTORY
+ら "ら" 
+し "氏" 
+ちゃん "ちゃん" 
+ちょう "帖" 
+い "位" 
+き "機" 
